Traceback (most recent call last):
  File "/home/zik/rl4co-var/pomo50_gat.py", line 5, in <module>
    from rl4co.models.nn.graph.gcn import GCNEncoder
  File "/home/zik/rl4co-var/rl4co/models/nn/graph/gcn.py", line 9, in <module>
    from torch_geometric.data import Batch, Data
ModuleNotFoundError: No module named 'torch_geometric'
